…
```
## Response: age (numeric)
## Null Hypothesis: point
## # A tibble: 10,000 x 2
##    replicate  stat
##        <int> <dbl>
##  1         1  22.9
##  2         2  23.1
##  3         3  23.1
##  4         4  22.9
##  5         5  23.1
##  6         6  23.0
##  7         7  23.0
##  8         8  23.0
##  9         9  23.0
## 10        10  23.0
## # ... with 9,990 more rows
```
…
It’s important to set the significance level before starting the testing using the data. Let’s set the significance level at 5% here.

#### B.3.3 Exploring the sample data


```r
# Create data.frame
(elec <-
  c(rep("satisfied", 73), rep("unsatisfied", 27)) %>% 
  enframe() %>% 
  rename(satisfy = value)) 
```

```
## # A tibble: 100 x 2
##     name satisfy  
##    <int> <chr>    
##  1     1 satisfied
##  2     2 satisfied
##  3     3 satisfied
##  4     4 satisfied
##  5     5 satisfied
##  6     6 satisfied
##  7     7 satisfied
##  8     8 satisfied
##  9     9 satisfied
## 10    10 satisfied
## # ... with 90 more rows
```
…
```r
# Bootstrap distribution
(boot_distn_one_prop <- 
  elec %>%
  specify(response = satisfy, success = "satisfied") %>% 
  generate(reps = 10000, type = "bootstrap") %>% 
  calculate(stat = "prop"))
```

```
## Response: satisfy (factor)
## # A tibble: 10,000 x 2
##    replicate  stat
##        <int> <dbl>
##  1         1  0.73
##  2         2  0.68
##  3         3  0.73
##  4         4  0.78
##  5         5  0.69
##  6         6  0.72
##  7         7  0.68
##  8         8  0.78
##  9         9  0.78
## 10        10  0.66
## # ... with 9,990 more rows
```
…
```r
set.seed(2018)
(null_distn_two_props  <-
  offshore %>% 
  specify(response ~ college_grad, success = "no opinion") %>% 
  hypothesise(null = "independence") %>% 
  generate(reps = 10000, type = "permute") %>% 
  calculate(stat = "diff in props", order = c("yes", "no")))
```

```
## Response: response (factor)
## Explanatory: college_grad (factor)
## Null Hypothesis: independence
## # A tibble: 10,000 x 2
##    replicate     stat
##        <int>    <dbl>
##  1         1 -0.0265 
##  2         2  0.0172 
##  3         3  0.0220 
##  4         4 -0.00710
##  5         5 -0.0459 
##  6         6  0.0172 
##  7         7 -0.00710
##  8         8 -0.0168 
##  9         9  0.0220 
## 10        10  0.0560 
## # ... with 9,990 more rows
```
…
```r
(boot_distn_two_props <- 
  offshore %>%
  specify(response ~ college_grad, success = "no opinion") %>% 
  generate(reps = 10000, type = "bootstrap") %>% 
  calculate(stat = "diff in props", order = c("yes", "no")))
```

```
## Response: response (factor)
## Explanatory: college_grad (factor)
## # A tibble: 10,000 x 2
##    replicate    stat
##        <int>   <dbl>
##  1         1 -0.0955
##  2         2 -0.0468
##  3         3 -0.119 
##  4         4 -0.108 
##  5         5 -0.112 
##  6         6 -0.112 
##  7         7 -0.0992
##  8         8 -0.0864
##  9         9 -0.156 
## 10        10 -0.0634
## # ... with 9,990 more rows
```
…
```
## Response: income (numeric)
## Explanatory: metro_area (factor)
## Null Hypothesis: independence
## # A tibble: 10,000 x 2
##    replicate    stat
##        <int>   <dbl>
##  1         1  3350. 
##  2         2   119. 
##  3         3  1907. 
##  4         4    89.7
##  5         5  1163. 
##  6         6 -1577. 
##  7         7  1809. 
##  8         8  2606. 
##  9         9  4748. 
## 10        10 -3629. 
## # ... with 9,990 more rows
```
…
```r
(boot_distn_two_means <- 
  cle_sac %>%
  specify(income ~ metro_area) %>% 
  generate(reps = 10000, type = "bootstrap") %>% 
  calculate(stat = "diff in means", order = c("Sacramento_ CA", "Cleveland_ OH")))
```

```
## Response: income (numeric)
## Explanatory: metro_area (factor)
## # A tibble: 10,000 x 2
##    replicate  stat
##        <int> <dbl>
##  1         1 9245.
##  2         2 9453.
##  3         3 2889.
##  4         4 1593.
##  5         5  441.
##  6         6 7800.
##  7         7 6516.
##  8         8 5067.
##  9         9 3495.
## 10        10 8655.
## # ... with 9,990 more rows
```
…
Bootstrapping for hypothesis test

```r
set.seed(2018)
(null_distn_paired_means <- zinc_diff %>%
  specify(response = pair_diff) %>% 
  hypothesize(null = "point", mu = 0) %>% 
  generate(reps = 10000, type = "bootstrap") %>% 
  calculate(stat = "mean"))
```

```
## Response: pair_diff (numeric)
## Null Hypothesis: point
## # A tibble: 10,000 x 2
##    replicate     stat
##        <int>    <dbl>
##  1         1 -0.0107 
##  2         2 -0.00940
##  3         3  0.0171 
##  4         4  0.0251 
##  5         5  0.0055 
##  6         6  0.00130
##  7         7  0.0158 
##  8         8  0.0114 
##  9         9 -0.0142 
## 10        10  0.0079 
## # ... with 9,990 more rows
```
…
Bootstrapping for confidence interval


```r
(boot_distn_paired_means  <- zinc_diff %>%
  specify(response = pair_diff) %>% 
  generate(reps = 10000, type = "bootstrap") %>% 
  calculate(stat = "mean"))
```

```
## Response: pair_diff (numeric)
## # A tibble: 10,000 x 2
##    replicate    stat
##        <int>   <dbl>
##  1         1 -0.0757
##  2         2 -0.085 
##  3         3 -0.0676
##  4         4 -0.0841
##  5         5 -0.0966
##  6         6 -0.0738
##  7         7 -0.075 
##  8         8 -0.0849
##  9         9 -0.0954
## 10        10 -0.0713
## # ... with 9,990 more rows
```
…
