…
### 10.3 Conditions for inference for regression
#### 10.3.1 Residuals refresher


```r
# Fit regression model:
score_model <- lm(score ~ bty_avg, data = evals_ch5)
# Get regression points:
regression_points <- get_regression_points(score_model)
regression_points
```

```
## # A tibble: 463 x 5
##       ID score bty_avg score_hat residual
##    <int> <dbl>   <dbl>     <dbl>    <dbl>
##  1     1   4.7    5         4.21    0.486
##  2     2   4.1    5         4.21   -0.114
##  3     3   3.9    5         4.21   -0.314
##  4     4   4.8    5         4.21    0.586
##  5     5   4.6    3         4.08    0.52 
##  6     6   4.3    3         4.08    0.22 
##  7     7   2.8    3         4.08   -1.28 
##  8     8   4.1    3.33      4.10   -0.002
##  9     9   3.4    3.33      4.10   -0.702
## 10    10   4.5    3.17      4.09    0.409
## # ... with 453 more rows
```
…
Would you say that the relationship between x and y is linear? It’s hard to say 
because of the scatter of the points about the line. In the authors’ opinions, we 
feel this relationship is “linear enough.”

#### 10.3.3 Independence of residuals


```r
evals %>% 
  select(ID, prof_ID, score, bty_avg)
```

```
## # A tibble: 463 x 4
##       ID prof_ID score bty_avg
##    <int>   <int> <dbl>   <dbl>
##  1     1       1   4.7    5   
##  2     2       1   4.1    5   
##  3     3       1   3.9    5   
##  4     4       1   4.8    5   
##  5     5       2   4.6    3   
##  6     6       2   4.3    3   
##  7     7       2   2.8    3   
##  8     8       3   4.1    3.33
##  9     9       3   3.4    3.33
## 10    10       4   4.5    3.17
## # ... with 453 more rows
```
…
```r
# Let’s first construct the bootstrap distribution for the fitted slope b1:
bootstrap_distn_slope <-
  evals %>% 
  specify(score ~ bty_avg) %>% 
  generate(reps = 1000, type = "bootstrap") %>% 
  calculate(stat = "slope")
bootstrap_distn_slope
```

```
## Response: score (numeric)
## Explanatory: bty_avg (numeric)
## # A tibble: 1,000 x 2
##    replicate   stat
##        <int>  <dbl>
##  1         1 0.0537
##  2         2 0.0679
##  3         3 0.0499
##  4         4 0.0667
##  5         5 0.0543
##  6         6 0.0806
##  7         7 0.0474
##  8         8 0.0564
##  9         9 0.0768
## 10        10 0.0472
## # ... with 990 more rows
```
…
```r
null_distn_slope <- 
  evals %>% 
  specify(score ~ bty_avg) %>%
  hypothesize(null = "independence") %>% 
  generate(reps = 1000, type = "permute") %>% 
  calculate(stat = "slope")
null_distn_slope
```

```
## Response: score (numeric)
## Explanatory: bty_avg (numeric)
## Null Hypothesis: independence
## # A tibble: 1,000 x 2
##    replicate     stat
##        <int>    <dbl>
##  1         1  0.00423
##  2         2 -0.0421 
##  3         3  0.00678
##  4         4  0.00371
##  5         5  0.0311 
##  6         6 -0.00446
##  7         7 -0.0111 
##  8         8  0.0170 
##  9         9  0.00489
## 10        10  0.0193 
## # ... with 990 more rows
```
…
