…
```r
# Log10 transform the numeric variables because of long right tail
house_prices <-
  house_prices %>% 
  mutate(log10_price = log10(price),
         log10_size = log10(sqft_living))
house_prices
```

```
## # A tibble: 21,613 x 23
##    id         date         price bedrooms bathrooms sqft_living sqft_lot floors waterfront  view condition grade
##    <chr>      <date>       <dbl>    <int>     <dbl>       <int>    <int>  <dbl> <lgl>      <int> <fct>     <fct>
##  1 7129300520 2014-10-13  221900        3      1           1180     5650      1 FALSE          0 3         7    
##  2 6414100192 2014-12-09  538000        3      2.25        2570     7242      2 FALSE          0 3         7    
##  3 5631500400 2015-02-25  180000        2      1            770    10000      1 FALSE          0 3         6    
##  4 2487200875 2014-12-09  604000        4      3           1960     5000      1 FALSE          0 5         7    
##  5 1954400510 2015-02-18  510000        3      2           1680     8080      1 FALSE          0 3         8    
##  6 7237550310 2014-05-12 1225000        4      4.5         5420   101930      1 FALSE          0 3         11   
##  7 1321400060 2014-06-27  257500        3      2.25        1715     6819      2 FALSE          0 3         7    
##  8 2008000270 2015-01-15  291850        3      1.5         1060     9711      1 FALSE          0 3         7    
##  9 2414600126 2015-04-15  229500        3      1           1780     7470      1 FALSE          0 3         7    
## 10 3793500160 2015-03-12  323000        3      2.5         1890     6560      2 FALSE          0 3         7    
## # ... with 21,603 more rows, and 11 more variables: sqft_above <int>, sqft_basement <int>, yr_built <int>,
## #   yr_renovated <int>, zipcode <fct>, lat <dbl>, long <dbl>, sqft_living15 <int>, sqft_lot15 <int>,
## #   log10_price <dbl>, log10_size <dbl>
```
…
```r
US_Biths_1999 %>% 
  arrange(desc(births))
```

```
## # A tibble: 365 x 6
##     year month date_of_month date       day_of_week births
##    <int> <int>         <int> <date>     <ord>        <int>
##  1  1999     9             9 1999-09-09 Thurs        14540
##  2  1999    12            21 1999-12-21 Tues         13508
##  3  1999     9             8 1999-09-08 Wed          13437
##  4  1999     9            21 1999-09-21 Tues         13384
##  5  1999     9            28 1999-09-28 Tues         13358
##  6  1999     7             7 1999-07-07 Wed          13343
##  7  1999     7             8 1999-07-08 Thurs        13245
##  8  1999     8            17 1999-08-17 Tues         13201
##  9  1999     9            10 1999-09-10 Fri          13181
## 10  1999    12            28 1999-12-28 Tues         13158
## # ... with 355 more rows
```


```r
# (LC11.2) What date between 1994 and 2003 has the fewest number of births in the US? What story could you tell about why this is the case?

US_births_1994_2003 %>% 
  arrange(births)
```

```
## # A tibble: 3,652 x 6
##     year month date_of_month date       day_of_week births
##    <int> <int>         <int> <date>     <ord>        <int>
##  1  2001    12            25 2001-12-25 Tues          6443
##  2  2000    12            25 2000-12-25 Mon           6566
##  3  2003    12            25 2003-12-25 Thurs         6628
##  4  2002    12            25 2002-12-25 Wed           6629
##  5  1999    12            25 1999-12-25 Sat           6674
##  6  2000    12            24 2000-12-24 Sun           6801
##  7  1995    12            24 1995-12-24 Sun           6999
##  8  2002     4             7 2002-04-07 Sun           7008
##  9  2002     3            31 2002-03-31 Sun           7019
## 10  1998    12            25 1998-12-25 Fri           7020
## # ... with 3,642 more rows
```
…
