…
```r
portland_flights <-
  flights %>% 
  filter(dest == "PDX")

portland_flights
```

```
## # A tibble: 1,354 x 19
##     year month   day dep_time sched_dep_time dep_delay arr_time sched_arr_time arr_delay carrier flight tailnum
##    <int> <int> <int>    <int>          <int>     <dbl>    <int>          <int>     <dbl> <chr>    <int> <chr>  
##  1  2013     1     1     1739           1740        -1     2051           2112       -21 DL        1339 N3761R 
##  2  2013     1     1     1805           1757         8     2117           2119        -2 UA        1152 N39463 
##  3  2013     1     1     2052           2029        23     2349           2350        -1 B6         165 N536JB 
##  4  2013     1     2      804            805        -1     1039           1110       -31 UA         423 N528UA 
##  5  2013     1     2     1552           1550         2     1853           1922       -29 DL         667 N371DA 
##  6  2013     1     2     1727           1720         7     2042           2040         2 UA         784 N438UA 
##  7  2013     1     2     1738           1740        -2     2028           2112       -44 DL        1339 N3754A 
##  8  2013     1     2     2024           2029        -5     2314           2350       -36 B6         165 N534JB 
##  9  2013     1     3     1755           1745        10     2110           2117        -7 DL        1394 N399DA 
## 10  2013     1     3     1814           1727        47     2108           2049        19 UA        1454 N14219 
## # ... with 1,344 more rows, and 7 more variables: origin <chr>, dest <chr>, air_time <dbl>, distance <dbl>,
## #   hour <dbl>, minute <dbl>, time_hour <dttm>
```


```r
btv_sea_flights_fall <-
  flights %>%
  filter(origin == "JFK",
         (dest == "BTV" | dest == "SEA"),
         month >= 10)
btv_sea_flights_fall
```

```
## # A tibble: 815 x 19
##     year month   day dep_time sched_dep_time dep_delay arr_time sched_arr_time arr_delay carrier flight tailnum
##    <int> <int> <int>    <int>          <int>     <dbl>    <int>          <int>     <dbl> <chr>    <int> <chr>  
##  1  2013    10     1      729            735        -6     1049           1040         9 DL         183 N721TW 
##  2  2013    10     1      853            900        -7     1217           1157        20 B6          63 N807JB 
##  3  2013    10     1      916            925        -9     1016           1033       -17 B6        1634 N192JB 
##  4  2013    10     1     1216           1221        -5     1326           1328        -2 B6          34 N318JB 
##  5  2013    10     1     1452           1459        -7     1602           1622       -20 B6        1734 N258JB 
##  6  2013    10     1     1459           1500        -1     1817           1829       -12 DL         161 N169DZ 
##  7  2013    10     1     1754           1800        -6     2102           2103        -1 B6         263 N599JB 
##  8  2013    10     1     1825           1830        -5     2159           2150         9 DL         442 N710TW 
##  9  2013    10     1     1925           1930        -5     2227           2250       -23 AA         235 N3DMAA 
## 10  2013    10     1     2238           2245        -7     2348           2353        -5 B6         234 N368JB 
## # ... with 805 more rows, and 7 more variables: origin <chr>, dest <chr>, air_time <dbl>, distance <dbl>,
## #   hour <dbl>, minute <dbl>, time_hour <dttm>
```


```r
not_BTV_SEA <- 
  flights %>% 
  filter(!(dest == "BTV" | dest == "SEA"))
not_BTV_SEA
```

```
## # A tibble: 330,264 x 19
##     year month   day dep_time sched_dep_time dep_delay arr_time sched_arr_time arr_delay carrier flight tailnum
##    <int> <int> <int>    <int>          <int>     <dbl>    <int>          <int>     <dbl> <chr>    <int> <chr>  
##  1  2013     1     1      517            515         2      830            819        11 UA        1545 N14228 
##  2  2013     1     1      533            529         4      850            830        20 UA        1714 N24211 
##  3  2013     1     1      542            540         2      923            850        33 AA        1141 N619AA 
##  4  2013     1     1      544            545        -1     1004           1022       -18 B6         725 N804JB 
##  5  2013     1     1      554            600        -6      812            837       -25 DL         461 N668DN 
##  6  2013     1     1      554            558        -4      740            728        12 UA        1696 N39463 
##  7  2013     1     1      555            600        -5      913            854        19 B6         507 N516JB 
##  8  2013     1     1      557            600        -3      709            723       -14 EV        5708 N829AS 
##  9  2013     1     1      557            600        -3      838            846        -8 B6          79 N593JB 
## 10  2013     1     1      558            600        -2      753            745         8 AA         301 N3ALAA 
## # ... with 330,254 more rows, and 7 more variables: origin <chr>, dest <chr>, air_time <dbl>, distance <dbl>,
## #   hour <dbl>, minute <dbl>, time_hour <dttm>
```


```r
many_airports <- 
  flights %>% 
  filter(dest %in% c("SEA", "SFO", "PDX", "BTV", "BDL"))
many_airports
```

```
## # A tibble: 21,640 x 19
##     year month   day dep_time sched_dep_time dep_delay arr_time sched_arr_time arr_delay carrier flight tailnum
##    <int> <int> <int>    <int>          <int>     <dbl>    <int>          <int>     <dbl> <chr>    <int> <chr>  
##  1  2013     1     1      558            600        -2      923            937       -14 UA        1124 N53441 
##  2  2013     1     1      611            600        11      945            931        14 UA         303 N532UA 
##  3  2013     1     1      655            700        -5     1037           1045        -8 DL        1865 N705TW 
##  4  2013     1     1      724            725        -1     1020           1030       -10 AS          11 N594AS 
##  5  2013     1     1      729            730        -1     1049           1115       -26 VX          11 N635VA 
##  6  2013     1     1      734            737        -3     1047           1113       -26 B6         643 N625JB 
##  7  2013     1     1      743            730        13     1059           1056         3 DL         495 N3760C 
##  8  2013     1     1      745            745         0     1135           1125        10 AA          59 N336AA 
##  9  2013     1     1      746            746         0     1119           1129       -10 UA        1668 N24224 
## 10  2013     1     1      803            800         3     1132           1144       -12 UA         223 N510UA 
## # ... with 21,630 more rows, and 7 more variables: origin <chr>, dest <chr>, air_time <dbl>, distance <dbl>,
## #   hour <dbl>, minute <dbl>, time_hour <dttm>
```



```r
# (LC3.1) What’s another way of using the “not” operator ! to filter only the 
# rows that are not going to Burlington, VT nor Seattle, 
# WA in the flights data frame? Test this out using the previous code.

flights %>% 
  filter(!(dest %in% c("SEA" ,"BTV")))
```

```
## # A tibble: 330,264 x 19
##     year month   day dep_time sched_dep_time dep_delay arr_time sched_arr_time arr_delay carrier flight tailnum
##    <int> <int> <int>    <int>          <int>     <dbl>    <int>          <int>     <dbl> <chr>    <int> <chr>  
##  1  2013     1     1      517            515         2      830            819        11 UA        1545 N14228 
##  2  2013     1     1      533            529         4      850            830        20 UA        1714 N24211 
##  3  2013     1     1      542            540         2      923            850        33 AA        1141 N619AA 
##  4  2013     1     1      544            545        -1     1004           1022       -18 B6         725 N804JB 
##  5  2013     1     1      554            600        -6      812            837       -25 DL         461 N668DN 
##  6  2013     1     1      554            558        -4      740            728        12 UA        1696 N39463 
##  7  2013     1     1      555            600        -5      913            854        19 B6         507 N516JB 
##  8  2013     1     1      557            600        -3      709            723       -14 EV        5708 N829AS 
##  9  2013     1     1      557            600        -3      838            846        -8 B6          79 N593JB 
## 10  2013     1     1      558            600        -2      753            745         8 AA         301 N3ALAA 
## # ... with 330,254 more rows, and 7 more variables: origin <chr>, dest <chr>, air_time <dbl>, distance <dbl>,
## #   hour <dbl>, minute <dbl>, time_hour <dttm>
```
…
```r
by_origin_monthly <-
  flights %>% 
  group_by(origin, month) %>% 
  summarise(count = n())
by_origin_monthly
```

```
## # A tibble: 36 x 3
## # Groups:   origin [3]
##    origin month count
##    <chr>  <int> <int>
##  1 EWR        1  9893
##  2 EWR        2  9107
##  3 EWR        3 10420
##  4 EWR        4 10531
##  5 EWR        5 10592
##  6 EWR        6 10175
##  7 EWR        7 10475
##  8 EWR        8 10359
##  9 EWR        9  9550
## 10 EWR       10 10104
## # ... with 26 more rows
```
…
```r
# (LC3.6) What code would be required to get the mean and standard deviation 
# temperature for each day in 2013 for NYC?
weather %>% 
  group_by(month, day) %>% 
  summarise(mean = mean(temp, na.rm = TRUE),
            sd = sd(temp, na.rm = TRUE))
```

```
## # A tibble: 364 x 4
## # Groups:   month [12]
##    month   day  mean    sd
##    <int> <int> <dbl> <dbl>
##  1     1     1  37.0  4.00
##  2     1     2  28.7  3.45
##  3     1     3  30.0  2.58
##  4     1     4  34.9  2.45
##  5     1     5  37.2  4.01
##  6     1     6  40.1  4.40
##  7     1     7  40.6  3.68
##  8     1     8  40.1  5.77
##  9     1     9  43.2  5.40
## 10     1    10  43.8  2.95
## # ... with 354 more rows
```
…
```r
# (LC3.8) How could we identify how many flights left each of the three airports 
# for each carrier?
flights %>% 
  group_by(origin, carrier) %>% 
  summarise(count = n())
```

```
## # A tibble: 35 x 3
## # Groups:   origin [3]
##    origin carrier count
##    <chr>  <chr>   <int>
##  1 EWR    9E       1268
##  2 EWR    AA       3487
##  3 EWR    AS        714
##  4 EWR    B6       6557
##  5 EWR    DL       4342
##  6 EWR    EV      43939
##  7 EWR    MQ       2276
##  8 EWR    OO          6
##  9 EWR    UA      46087
## 10 EWR    US       4405
## # ... with 25 more rows
```

```r
# or

flights %>% count(origin, carrier)
```

```
## # A tibble: 35 x 3
##    origin carrier     n
##    <chr>  <chr>   <int>
##  1 EWR    9E       1268
##  2 EWR    AA       3487
##  3 EWR    AS        714
##  4 EWR    B6       6557
##  5 EWR    DL       4342
##  6 EWR    EV      43939
##  7 EWR    MQ       2276
##  8 EWR    OO          6
##  9 EWR    UA      46087
## 10 EWR    US       4405
## # ... with 25 more rows
```
…
```r
flights <-
  flights %>% 
  mutate(gain = dep_delay - arr_delay)
flights
```

```
## # A tibble: 336,776 x 20
##     year month   day dep_time sched_dep_time dep_delay arr_time sched_arr_time arr_delay carrier flight tailnum
##    <int> <int> <int>    <int>          <int>     <dbl>    <int>          <int>     <dbl> <chr>    <int> <chr>  
##  1  2013     1     1      517            515         2      830            819        11 UA        1545 N14228 
##  2  2013     1     1      533            529         4      850            830        20 UA        1714 N24211 
##  3  2013     1     1      542            540         2      923            850        33 AA        1141 N619AA 
##  4  2013     1     1      544            545        -1     1004           1022       -18 B6         725 N804JB 
##  5  2013     1     1      554            600        -6      812            837       -25 DL         461 N668DN 
##  6  2013     1     1      554            558        -4      740            728        12 UA        1696 N39463 
##  7  2013     1     1      555            600        -5      913            854        19 B6         507 N516JB 
##  8  2013     1     1      557            600        -3      709            723       -14 EV        5708 N829AS 
##  9  2013     1     1      557            600        -3      838            846        -8 B6          79 N593JB 
## 10  2013     1     1      558            600        -2      753            745         8 AA         301 N3ALAA 
## # ... with 336,766 more rows, and 8 more variables: origin <chr>, dest <chr>, air_time <dbl>, distance <dbl>,
## #   hour <dbl>, minute <dbl>, time_hour <dttm>, gain <dbl>
```
…
# A: positive values correspond to the flight reduced delay from the departure
  # negative values correspond to the flight increasing delay from the departure

# (LC3.11) Could we create the dep_delay and arr_delay columns by simply 
# subtracting dep_time from sched_dep_time and similarly for arrivals? Try the 
# code out and explain any differences between the result and what actually 
 #appears in flights.
flights %>% 
  mutate(dep_delay_alternative = sched_dep_time - dep_time,
         arr_delay_alternative = sched_arr_time - arr_time) %>% 
  select(dep_delay, dep_delay_alternative, arr_delay, arr_delay_alternative)
```

```
## # A tibble: 336,776 x 4
##    dep_delay dep_delay_alternative arr_delay arr_delay_alternative
##        <dbl>                 <int>     <dbl>                 <int>
##  1         2                    -2        11                   -11
##  2         4                    -4        20                   -20
##  3         2                    -2        33                   -73
##  4        -1                     1       -18                    18
##  5        -6                    46       -25                    25
##  6        -4                     4        12                   -12
##  7        -5                    45        19                   -59
##  8        -3                    43       -14                    14
##  9        -3                    43        -8                     8
## 10        -2                    42         8                    -8
## # ... with 336,766 more rows
```
…
```r
# arrange

freq_dest <- 
  flights %>% 
  group_by(dest) %>% 
  summarize(num_flights = n())
freq_dest
```

```
## # A tibble: 105 x 2
##    dest  num_flights
##    <chr>       <int>
##  1 ABQ           254
##  2 ACK           265
##  3 ALB           439
##  4 ANC             8
##  5 ATL         17215
##  6 AUS          2439
##  7 AVL           275
##  8 BDL           443
##  9 BGR           375
## 10 BHM           297
## # ... with 95 more rows
```



```r
freq_dest %>% 
  arrange(num_flights)
```

```
## # A tibble: 105 x 2
##    dest  num_flights
##    <chr>       <int>
##  1 LEX             1
##  2 LGA             1
##  3 ANC             8
##  4 SBN            10
##  5 HDN            15
##  6 MTJ            15
##  7 EYW            17
##  8 PSP            19
##  9 JAC            25
## 10 BZN            36
## # ... with 95 more rows
```



```r
freq_dest %>% 
  arrange(desc(num_flights))
```

```
## # A tibble: 105 x 2
##    dest  num_flights
##    <chr>       <int>
##  1 ORD         17283
##  2 ATL         17215
##  3 LAX         16174
##  4 BOS         15508
##  5 MCO         14082
##  6 CLT         14064
##  7 SFO         13331
##  8 FLL         12055
##  9 MIA         11728
## 10 DCA          9705
## # ... with 95 more rows
```


```r
# Joins

flights_joined <-
  flights %>% 
  inner_join(airlines, by = "carrier")
flights
```

```
## # A tibble: 336,776 x 22
##     year month   day dep_time sched_dep_time dep_delay arr_time sched_arr_time arr_delay carrier flight tailnum
##    <int> <int> <int>    <int>          <int>     <dbl>    <int>          <int>     <dbl> <chr>    <int> <chr>  
##  1  2013     1     1      517            515         2      830            819        11 UA        1545 N14228 
##  2  2013     1     1      533            529         4      850            830        20 UA        1714 N24211 
##  3  2013     1     1      542            540         2      923            850        33 AA        1141 N619AA 
##  4  2013     1     1      544            545        -1     1004           1022       -18 B6         725 N804JB 
##  5  2013     1     1      554            600        -6      812            837       -25 DL         461 N668DN 
##  6  2013     1     1      554            558        -4      740            728        12 UA        1696 N39463 
##  7  2013     1     1      555            600        -5      913            854        19 B6         507 N516JB 
##  8  2013     1     1      557            600        -3      709            723       -14 EV        5708 N829AS 
##  9  2013     1     1      557            600        -3      838            846        -8 B6          79 N593JB 
## 10  2013     1     1      558            600        -2      753            745         8 AA         301 N3ALAA 
## # ... with 336,766 more rows, and 10 more variables: origin <chr>, dest <chr>, air_time <dbl>, distance <dbl>,
## #   hour <dbl>, minute <dbl>, time_hour <dttm>, gain <dbl>, hours <dbl>, gain_per_hour <dbl>
```



```r
# Same column has different name
flights_with_airport_names <-
  flights %>% 
  inner_join(airports, by = c("dest" = "faa"))
flights_with_airport_names
```

```
## # A tibble: 329,174 x 29
##     year month   day dep_time sched_dep_time dep_delay arr_time sched_arr_time arr_delay carrier flight tailnum
##    <int> <int> <int>    <int>          <int>     <dbl>    <int>          <int>     <dbl> <chr>    <int> <chr>  
##  1  2013     1     1      517            515         2      830            819        11 UA        1545 N14228 
##  2  2013     1     1      533            529         4      850            830        20 UA        1714 N24211 
##  3  2013     1     1      542            540         2      923            850        33 AA        1141 N619AA 
##  4  2013     1     1      554            600        -6      812            837       -25 DL         461 N668DN 
##  5  2013     1     1      554            558        -4      740            728        12 UA        1696 N39463 
##  6  2013     1     1      555            600        -5      913            854        19 B6         507 N516JB 
##  7  2013     1     1      557            600        -3      709            723       -14 EV        5708 N829AS 
##  8  2013     1     1      557            600        -3      838            846        -8 B6          79 N593JB 
##  9  2013     1     1      558            600        -2      753            745         8 AA         301 N3ALAA 
## 10  2013     1     1      558            600        -2      849            851        -2 B6          49 N793JB 
## # ... with 329,164 more rows, and 17 more variables: origin <chr>, dest <chr>, air_time <dbl>, distance <dbl>,
## #   hour <dbl>, minute <dbl>, time_hour <dttm>, gain <dbl>, hours <dbl>, gain_per_hour <dbl>, name <chr>,
## #   lat <dbl>, lon <dbl>, alt <dbl>, tz <dbl>, dst <chr>, tzone <chr>
```
…
