…
### 5.1 One numerical explanatory variable
#### 5.1.1 Exploratory data analysis


```r
# Select columns from evals
evals_ch5 <-
  evals %>% 
  select(ID, score, bty_avg, age)

evals_ch5
```

```
## # A tibble: 463 x 4
##       ID score bty_avg   age
##    <int> <dbl>   <dbl> <int>
##  1     1   4.7    5       36
##  2     2   4.1    5       36
##  3     3   3.9    5       36
##  4     4   4.8    5       36
##  5     5   4.6    3       59
##  6     6   4.3    3       59
##  7     7   2.8    3       59
##  8     8   4.1    3.33    51
##  9     9   3.4    3.33    51
## 10    10   4.5    3.17    40
## # ... with 453 more rows
```
…
#### 5.1.3 Observed/fitted values and residuals


```r
# Get regression points
regression_points <- get_regression_points(score_model)
regression_points
```

```
## # A tibble: 463 x 5
##       ID score bty_avg score_hat residual
##    <int> <dbl>   <dbl>     <dbl>    <dbl>
##  1     1   4.7    5         4.21    0.486
##  2     2   4.1    5         4.21   -0.114
##  3     3   3.9    5         4.21   -0.314
##  4     4   4.8    5         4.21    0.586
##  5     5   4.6    3         4.08    0.52 
##  6     6   4.3    3         4.08    0.22 
##  7     7   2.8    3         4.08   -1.28 
##  8     8   4.1    3.33      4.10   -0.002
##  9     9   3.4    3.33      4.10   -0.702
## 10    10   4.5    3.17      4.09    0.409
## # ... with 453 more rows
```


```r
# (LC5.3) Generate a data frame of the residuals of the model where 
# you used age as the explanatory x variable.

evals_ch5 %>% 
  lm(score ~ age, data = .) %>% 
  get_regression_points()
```

```
## # A tibble: 463 x 5
##       ID score   age score_hat residual
##    <int> <dbl> <int>     <dbl>    <dbl>
##  1     1   4.7    36      4.25    0.452
##  2     2   4.1    36      4.25   -0.148
##  3     3   3.9    36      4.25   -0.348
##  4     4   4.8    36      4.25    0.552
##  5     5   4.6    59      4.11    0.488
##  6     6   4.3    59      4.11    0.188
##  7     7   2.8    59      4.11   -1.31 
##  8     8   4.1    51      4.16   -0.059
##  9     9   3.4    51      4.16   -0.759
## 10    10   4.5    40      4.22    0.276
## # ... with 453 more rows
```
…
```r
# Answer: They mach as expected. Africa is the baseline; however,
  # The mean values are quite different from the median in some cases.
```

#### 5.2.3 Observed/fitted values and residuals

```r
regression_points <- get_regression_points(lifeExp_model, ID = "country")
regression_points
```

```
## # A tibble: 142 x 5
##    country     lifeExp continent lifeExp_hat residual
##    <fct>         <dbl> <fct>           <dbl>    <dbl>
##  1 Afghanistan    43.8 Asia             70.7  -26.9  
##  2 Albania        76.4 Europe           77.6   -1.23 
##  3 Algeria        72.3 Africa           54.8   17.5  
##  4 Angola         42.7 Africa           54.8  -12.1  
##  5 Argentina      75.3 Americas         73.6    1.71 
##  6 Australia      81.2 Oceania          80.7    0.516
##  7 Austria        79.8 Europe           77.6    2.18 
##  8 Bahrain        75.6 Asia             70.7    4.91 
##  9 Bangladesh     64.1 Asia             70.7   -6.67 
## 10 Belgium        79.4 Europe           77.6    1.79 
## # ... with 132 more rows
```
…
