…
# Load function to clear libraries
source(here::here("clear_libraries.R"))
```

### 8.1 Pennies activity
#### 8.1.1 What is the average year on US pennies in 2019?


```r
pennies_sample
```

```
## # A tibble: 50 x 2
##       ID  year
##    <int> <dbl>
##  1     1  2002
##  2     2  1986
##  3     3  2017
##  4     4  1988
##  5     5  2008
##  6     6  1983
##  7     7  2008
##  8     8  1996
##  9     9  2004
## 10    10  2000
## # ... with 40 more rows
```
…
#### 8.1.3 Resampling 35 times


```r
resampled_means <-
  pennies_resamples %>% 
  group_by(name) %>% 
  summarise(mean_year = mean(year))
resampled_means
```

```
## # A tibble: 35 x 2
##    name      mean_year
##    <chr>         <dbl>
##  1 Arianna       1992.
##  2 Artemis       1996.
##  3 Bea           1996.
##  4 Camryn        1997.
##  5 Cassandra     1991.
##  6 Cindy         1995.
##  7 Claire        1996.
##  8 Dahlia        1998.
##  9 Dan           1994.
## 10 Eindra        1994.
## # ... with 25 more rows
```
…
#### 8.1.4 What did we just do?

### 8.2 Computer simulation of resampling
#### 8.2.1 Virtually resampling once


```r
virtual_resample <-
  pennies_sample %>% 
  rep_slice_sample(n = 50, replace = TRUE)
virtual_resample
```

```
## # A tibble: 50 x 3
## # Groups:   replicate [1]
##    replicate    ID  year
##        <int> <int> <dbl>
##  1         1    38  1999
##  2         1    16  2015
##  3         1    31  2013
##  4         1    31  2013
##  5         1    27  1993
##  6         1    10  2000
##  7         1    35  1985
##  8         1    42  1997
##  9         1    44  2015
## 10         1    36  2015
## # ... with 40 more rows
```
…
#### 8.2.2 Virtually resampling 35 times

```r
# Create virtual resamples
virtual_resamples <-
  pennies_sample %>% 
  rep_slice_sample(n = 50, replace = TRUE, reps = 35)
virtual_resamples
```

```
## # A tibble: 1,750 x 3
## # Groups:   replicate [35]
##    replicate    ID  year
##        <int> <int> <dbl>
##  1         1    15  1974
##  2         1    48  1988
##  3         1    12  1995
##  4         1     5  2008
##  5         1    34  1985
##  6         1     2  1986
##  7         1    37  1962
##  8         1    22  1976
##  9         1     1  2002
## 10         1    15  1974
## # ... with 1,740 more rows
```


```r
# Count means for each replicate
virtual_resampled_means <-
  virtual_resamples %>% 
  group_by(replicate) %>% 
  summarise(mean_year = mean(year))
virtual_resampled_means
```

```
## # A tibble: 35 x 2
##    replicate mean_year
##        <int>     <dbl>
##  1         1     1996.
##  2         2     1993.
##  3         3     1995.
##  4         4     1995.
##  5         5     1994.
##  6         6     1996.
##  7         7     1995.
##  8         8     1996.
##  9         9     2000.
## 10        10     1997.
## # ... with 25 more rows
```
…
#### 8.2.3 Virtually resampling 1000 times


```r
# Repeat resampling 1000 times
virtual_resamples <-
  pennies_sample %>% 
  rep_slice_sample(n = 50, replace = TRUE, reps = 1000)
virtual_resamples
```

```
## # A tibble: 50,000 x 3
## # Groups:   replicate [1,000]
##    replicate    ID  year
##        <int> <int> <dbl>
##  1         1    29  1988
##  2         1    30  1978
##  3         1    42  1997
##  4         1    35  1985
##  5         1     6  1983
##  6         1    50  2017
##  7         1     9  2004
##  8         1    28  2006
##  9         1    14  1978
## 10         1    42  1997
## # ... with 49,990 more rows
```


```r
# Compute 1000 sample means
virtual_resampled_means <-
  virtual_resamples %>% 
  group_by(replicate) %>% 
  summarise(mean_year = mean(year))
virtual_resampled_means
```

```
## # A tibble: 1,000 x 2
##    replicate mean_year
##        <int>     <dbl>
##  1         1     1995.
##  2         2     1993.
##  3         3     1994.
##  4         4     1995.
##  5         5     1998.
##  6         6     1995.
##  7         7     1994.
##  8         8     1998.
##  9         9     1995.
## 10        10     1997.
## # ... with 990 more rows
```


```r
# Combined to one pipeline
virtual_resampled_means <-
  pennies_sample %>% 
  rep_slice_sample(n = 50, replace = TRUE, reps = 1000) %>% 
  group_by(replicate) %>% 
  summarise(mean_year = mean(year))
virtual_resampled_means
```

```
## # A tibble: 1,000 x 2
##    replicate mean_year
##        <int>     <dbl>
##  1         1     1999.
##  2         2     1998.
##  3         3     1993.
##  4         4     1996.
##  5         5     1994.
##  6         6     1997.
##  7         7     1993.
##  8         8     1995.
##  9         9     1996.
## 10        10     1998.
## # ... with 990 more rows
```
…
```r
# 1. SPECIFY - variables
pennies_sample %>% 
  specify(response = year) # or (response = yera ~ NULL)
```

```
## Response: year (numeric)
## # A tibble: 50 x 1
##     year
##    <dbl>
##  1  2002
##  2  1986
##  3  2017
##  4  1988
##  5  2008
##  6  1983
##  7  2008
##  8  1996
##  9  2004
## 10  2000
## # ... with 40 more rows
```


```r
# 2. GENERATE - data/replicates
pennies_sample %>% 
  specify(response = year) %>% 
  generate(reps = 1000, type = "bootstrap")
```

```
## Response: year (numeric)
## # A tibble: 50,000 x 2
## # Groups:   replicate [1,000]
##    replicate  year
##        <int> <dbl>
##  1         1  2002
##  2         1  2015
##  3         1  1979
##  4         1  1981
##  5         1  1999
##  6         1  2015
##  7         1  2017
##  8         1  2015
##  9         1  1988
## 10         1  2002
## # ... with 49,990 more rows
```


```r
# Compare to original workflow
pennies_sample %>% 
  rep_slice_sample(n = 50, replace = TRUE, reps = 1000)
```

```
## # A tibble: 50,000 x 3
## # Groups:   replicate [1,000]
##    replicate    ID  year
##        <int> <int> <dbl>
##  1         1     6  1983
##  2         1    19  1983
##  3         1    21  1981
##  4         1    23  1998
##  5         1    24  2017
##  6         1    29  1988
##  7         1    14  1978
##  8         1    30  1978
##  9         1    23  1998
## 10         1    12  1995
## # ... with 49,990 more rows
```


```r
# 3. CALCULATE - summary statistics
bootstrap_distribution <-
  pennies_sample %>% 
  specify(response = year) %>% 
  generate(reps = 1000, type = "bootstrap") %>% 
  calculate(stat = "mean")
bootstrap_distribution
```

```
## Response: year (numeric)
## # A tibble: 1,000 x 2
##    replicate  stat
##        <int> <dbl>
##  1         1 1994.
##  2         2 1993.
##  3         3 1993.
##  4         4 1994.
##  5         5 1995.
##  6         6 1995.
##  7         7 1997.
##  8         8 1992.
##  9         9 1996.
## 10        10 1994.
## # ... with 990 more rows
```


```r
# Compare to original workflow
pennies_sample %>% 
  rep_slice_sample(n = 50, replace = TRUE, reps = 1000) %>% 
  group_by(replicate) %>% 
  summarise(stat = mean(year))
```

```
## # A tibble: 1,000 x 2
##    replicate  stat
##        <int> <dbl>
##  1         1 1994.
##  2         2 1997.
##  3         3 1993.
##  4         4 1993.
##  5         5 1996.
##  6         6 1996 
##  7         7 1996.
##  8         8 1992.
##  9         9 1998.
## 10        10 1995.
## # ... with 990 more rows
```
…
#### 8.5.1 Did the net capture the fish?


```r
# Ilyas and Yohan’s sample
bowl_sample_1
```

```
## # A tibble: 50 x 1
##    color
##    <chr>
##  1 white
##  2 white
##  3 red  
##  4 red  
##  5 white
##  6 white
##  7 red  
##  8 white
##  9 white
## 10 white
## # ... with 40 more rows
```


```r
# Specify
bowl_sample_1 %>% 
  specify(response = color, success = "red")
```

```
## Response: color (factor)
## # A tibble: 50 x 1
##    color
##    <fct>
##  1 white
##  2 white
##  3 red  
##  4 red  
##  5 white
##  6 white
##  7 red  
##  8 white
##  9 white
## 10 white
## # ... with 40 more rows
```


```r
# Generate
bowl_sample_1 %>% 
  specify(response = color, success = "red") %>% 
  generate(reps = 1000, type = "bootstrap")
```

```
## Response: color (factor)
## # A tibble: 50,000 x 2
## # Groups:   replicate [1,000]
##    replicate color
##        <int> <fct>
##  1         1 white
##  2         1 white
##  3         1 red  
##  4         1 white
##  5         1 white
##  6         1 red  
##  7         1 red  
##  8         1 white
##  9         1 red  
## 10         1 white
## # ... with 49,990 more rows
```


```r
# Calculate
sample_1_bootstrap <-
  bowl_sample_1 %>% 
  specify(response = color, success = "red") %>% 
  generate(reps = 1000, type = "bootstrap") %>% 
  calculate(stat = "prop")
sample_1_bootstrap
```

```
## Response: color (factor)
## # A tibble: 1,000 x 2
##    replicate  stat
##        <int> <dbl>
##  1         1  0.38
##  2         2  0.42
##  3         3  0.5 
##  4         4  0.44
##  5         5  0.24
##  6         6  0.4 
##  7         7  0.32
##  8         8  0.3 
##  9         9  0.48
## 10        10  0.44
## # ... with 990 more rows
```
…
```r
# Will every 95% confidence interval capture the true pop. parameter
bowl_sample_2 <-
  bowl %>% 
  rep_slice_sample(n = 50)
bowl_sample_2
```

```
## # A tibble: 50 x 3
## # Groups:   replicate [1]
##    replicate ball_ID color
##        <int>   <int> <chr>
##  1         1     209 red  
##  2         1     596 red  
##  3         1    1197 white
##  4         1     933 white
##  5         1    1242 red  
##  6         1     438 white
##  7         1     194 white
##  8         1    1302 white
##  9         1    1418 red  
## 10         1    1364 white
## # ... with 40 more rows
```


```r
sample_2_bootstrap <-
  bowl_sample_2 %>% 
  specify(response = color, success = "red") %>% 
  generate(reps = 1000, type = "bootstrap") %>% 
  calculate(stat = "prop")
sample_2_bootstrap
```

```
## Response: color (factor)
## # A tibble: 1,000 x 2
##    replicate  stat
##        <int> <dbl>
##  1         1  0.38
##  2         2  0.3 
##  3         3  0.46
##  4         4  0.4 
##  5         5  0.46
##  6         6  0.48
##  7         7  0.46
##  8         8  0.44
##  9         9  0.44
## 10        10  0.44
## # ... with 990 more rows
```
…
# Short-hand interpretation: We are 95% “confident” that a 95% confidence interval captures the value of the population parameter.
```

#### 8.5.3 Width of confidence intervals

### 8.6 Case study: Is yawning contagious?
#### 8.6.1 Mythbusters study data


```r
mythbusters_yawn
```

```
## # A tibble: 50 x 3
##     subj group   yawn 
##    <int> <chr>   <chr>
##  1     1 seed    yes  
##  2     2 control yes  
##  3     3 seed    no   
##  4     4 seed    yes  
##  5     5 seed    no   
##  6     6 control no   
##  7     7 seed    yes  
##  8     8 control no   
##  9     9 control no   
## 10    10 seed    no   
## # ... with 40 more rows
```
…
#### 8.6.2 Sampling scenario
#### 8.6.3 Constructing the confidence interval


```r
# Specify
mythbusters_yawn %>% 
  specify(formula = yawn ~ group, success = "yes")
```

```
## Response: yawn (factor)
## Explanatory: group (factor)
## # A tibble: 50 x 2
##    yawn  group  
##    <fct> <fct>  
##  1 yes   seed   
##  2 yes   control
##  3 no    seed   
##  4 yes   seed   
##  5 no    seed   
##  6 no    control
##  7 yes   seed   
##  8 no    control
##  9 no    control
## 10 no    seed   
## # ... with 40 more rows
```


```r
# Generate
mythbusters_yawn %>% 
  specify(formula = yawn ~ group, success = "yes") %>% 
  generate(reps = 1000, type = "bootstrap")
```

```
## Response: yawn (factor)
## Explanatory: group (factor)
## # A tibble: 50,000 x 3
## # Groups:   replicate [1,000]
##    replicate yawn  group  
##        <int> <fct> <fct>  
##  1         1 no    seed   
##  2         1 no    seed   
##  3         1 no    seed   
##  4         1 no    seed   
##  5         1 no    control
##  6         1 no    seed   
##  7         1 no    seed   
##  8         1 no    seed   
##  9         1 no    control
## 10         1 no    control
## # ... with 49,990 more rows
```

```r
# Calculate
bootstrap_distribution_yawning <-
  mythbusters_yawn %>% 
  specify(formula = yawn ~ group, success = "yes") %>% 
  generate(reps = 1000, type = "bootstrap") %>% 
  calculate(stat = "diff in props", order = c("seed", "control"))
bootstrap_distribution_yawning 
```

```
## Response: yawn (factor)
## Explanatory: group (factor)
## # A tibble: 1,000 x 2
##    replicate     stat
##        <int>    <dbl>
##  1         1 -0.131  
##  2         2  0.112  
##  3         3 -0.0478 
##  4         4  0.0963 
##  5         5  0.141  
##  6         6  0.168  
##  7         7  0.00952
##  8         8  0.101  
##  9         9  0.118  
## 10        10 -0.0286 
## # ... with 990 more rows
```
…
Bootstrap distribution

```r
bootstrap_distribution  <-
  bowl_sample_1 %>% 
  specify(response = color, success = "red") %>% 
  generate(reps = 1000, type = "bootstrap") %>% 
  calculate(stat = "prop")
bootstrap_distribution
```

```
## Response: color (factor)
## # A tibble: 1,000 x 2
##    replicate  stat
##        <int> <dbl>
##  1         1  0.44
##  2         2  0.36
##  3         3  0.44
##  4         4  0.38
##  5         5  0.44
##  6         6  0.46
##  7         7  0.48
##  8         8  0.36
##  9         9  0.42
## 10        10  0.36
## # ... with 990 more rows
```
…
```
## # A tibble: 33 x 9
##    group            replicate red_balls p_hat     n     SE   MoE lower_ci upper_ci
##    <chr>                <int>     <int> <dbl> <dbl>  <dbl> <dbl>    <dbl>    <dbl>
##  1 Ilyas, Yohan             1        21  0.42    50 0.0698 0.137    0.283    0.557
##  2 Morgan, Terrance         2        17  0.34    50 0.0670 0.131    0.209    0.471
##  3 Martin, Thomas           3        21  0.42    50 0.0698 0.137    0.283    0.557
##  4 Clark, Frank             4        21  0.42    50 0.0698 0.137    0.283    0.557
##  5 Riddhi, Karina           5        18  0.36    50 0.0679 0.133    0.227    0.493
##  6 Andrew, Tyler            6        19  0.38    50 0.0686 0.135    0.245    0.515
##  7 Julia                    7        19  0.38    50 0.0686 0.135    0.245    0.515
##  8 Rachel, Lauren           8        11  0.22    50 0.0586 0.115    0.105    0.335
##  9 Daniel, Caroline         9        15  0.3     50 0.0648 0.127    0.173    0.427
## 10 Josh, Maeve             10        17  0.34    50 0.0670 0.131    0.209    0.471
## # ... with 23 more rows
```
…
