…
### 9.2 Understanding hypothesis tests
### 9.3 Conducting hypothesis tests
#### 9.3.1 infer package workflow


```r
# Specify variables
promotions %>% 
  specify(decision ~ gender, success = "promoted")
```

```
## Response: decision (factor)
## Explanatory: gender (factor)
## # A tibble: 48 x 2
##    decision gender
##    <fct>    <fct> 
##  1 promoted male  
##  2 promoted male  
##  3 promoted male  
##  4 promoted male  
##  5 promoted male  
##  6 promoted male  
##  7 promoted male  
##  8 promoted male  
##  9 promoted male  
## 10 promoted male  
## # ... with 38 more rows
```


```r
# Hypothesize the null
promotions %>% 
  specify(decision ~ gender, success = "promoted") %>% 
  hypothesize(null = "independence")
```

```
## Response: decision (factor)
## Explanatory: gender (factor)
## Null Hypothesis: independence
## # A tibble: 48 x 2
##    decision gender
##    <fct>    <fct> 
##  1 promoted male  
##  2 promoted male  
##  3 promoted male  
##  4 promoted male  
##  5 promoted male  
##  6 promoted male  
##  7 promoted male  
##  8 promoted male  
##  9 promoted male  
## 10 promoted male  
## # ... with 38 more rows
```
```r
# Generate replicates of shuffled datasets
promotions_generate <-
  promotions %>% 
  specify(decision ~ gender, success = "promoted") %>% 
  hypothesize(null = "independence") %>% 
  generate(reps = 1000, type = "permute")
promotions_generate
```

```
## Response: decision (factor)
## Explanatory: gender (factor)
## Null Hypothesis: independence
## # A tibble: 48,000 x 3
## # Groups:   replicate [1,000]
##    decision gender replicate
##    <fct>    <fct>      <int>
##  1 not      male           1
##  2 not      male           1
##  3 not      male           1
##  4 promoted male           1
##  5 promoted male           1
##  6 promoted male           1
##  7 promoted male           1
##  8 not      male           1
##  9 promoted male           1
## 10 promoted male           1
## # ... with 47,990 more rows
```
…
```
## Response: decision (factor)
## Explanatory: gender (factor)
## Null Hypothesis: independence
## # A tibble: 1,000 x 2
##    replicate    stat
##        <int>   <dbl>
##  1         1 -0.0417
##  2         2  0.0417
##  3         3 -0.0417
##  4         4  0.208 
##  5         5  0.0417
##  6         6  0.0417
##  7         7  0.0417
##  8         8  0.0417
##  9         9 -0.0417
## 10        10 -0.0417
## # ... with 990 more rows
```
…
```r
# Sample of the wrangled version of the dataset
movies_sample
```

```
## # A tibble: 68 x 4
##    title                     year rating genre  
##    <chr>                    <int>  <dbl> <chr>  
##  1 Underworld                1985    3.1 Action 
##  2 Love Affair               1932    6.3 Romance
##  3 Junglee                   1961    6.8 Romance
##  4 Eversmile, New Jersey     1989    5   Romance
##  5 Search and Destroy        1979    4   Action 
##  6 Secreto de Romelia, El    1988    4.9 Romance
##  7 Amants du Pont-Neuf, Les  1991    7.4 Romance
##  8 Illicit Dreams            1995    3.5 Action 
##  9 Kabhi Kabhie              1976    7.7 Romance
## 10 Electric Horseman, The    1979    5.8 Romance
## # ... with 58 more rows
```
…
#### 9.5.2 Sampling scenario
#### 9.5.3 Conducting the hypothesis test

```r
# Specify variables
movies_sample %>% 
  specify(rating ~ genre)
```

```
## Response: rating (numeric)
## Explanatory: genre (factor)
## # A tibble: 68 x 2
##    rating genre  
##     <dbl> <fct>  
##  1    3.1 Action 
##  2    6.3 Romance
##  3    6.8 Romance
##  4    5   Romance
##  5    4   Action 
##  6    4.9 Romance
##  7    7.4 Romance
##  8    3.5 Action 
##  9    7.7 Romance
## 10    5.8 Romance
## # ... with 58 more rows
```


```r
# Hypothesize the null
movies_sample %>% 
  specify(rating ~ genre) %>% 
  hypothesize(null = "independence")
```

```
## Response: rating (numeric)
## Explanatory: genre (factor)
## Null Hypothesis: independence
## # A tibble: 68 x 2
##    rating genre  
##     <dbl> <fct>  
##  1    3.1 Action 
##  2    6.3 Romance
##  3    6.8 Romance
##  4    5   Romance
##  5    4   Action 
##  6    4.9 Romance
##  7    7.4 Romance
##  8    3.5 Action 
##  9    7.7 Romance
## 10    5.8 Romance
## # ... with 58 more rows
```

```r
# Generate replicates

movies_sample %>% 
  specify(rating ~ genre) %>% 
  hypothesize(null = "independence") %>% 
  generate(reps = 1000, type = "permute") 
```

```
## Response: rating (numeric)
## Explanatory: genre (factor)
## Null Hypothesis: independence
## # A tibble: 68,000 x 3
## # Groups:   replicate [1,000]
##    rating genre   replicate
##     <dbl> <fct>       <int>
##  1    4.2 Action          1
##  2    2.3 Romance         1
##  3    3.7 Romance         1
##  4    6.7 Romance         1
##  5    5.2 Action          1
##  6    8.5 Romance         1
##  7    4.9 Romance         1
##  8    7.8 Action          1
##  9    4.8 Romance         1
## 10    3.5 Romance         1
## # ... with 67,990 more rows
```
…
```
## Response: rating (numeric)
## Explanatory: genre (factor)
## Null Hypothesis: independence
## # A tibble: 1,000 x 2
##    replicate    stat
##        <int>   <dbl>
##  1         1 -0.599 
##  2         2 -0.0378
##  3         3  0.293 
##  4         4 -0.0615
##  5         5  0.104 
##  6         6  0.222 
##  7         7 -0.274 
##  8         8 -0.882 
##  9         9 -0.0437
## 10        10  0.328 
## # ... with 990 more rows
```
…
